%YAML 1.1
%TAG !u! tag:unity3d.com,2011:
--- !u!114 &11400000
MonoBehaviour:
  m_ObjectHideFlags: 0
  m_CorrespondingSourceObject: {fileID: 0}
  m_PrefabInstance: {fileID: 0}
  m_PrefabAsset: {fileID: 0}
  m_GameObject: {fileID: 0}
  m_Enabled: 1
  m_EditorHideFlags: 0
  m_Script: {fileID: 11500000, guid: eac45da1f4912c4439580c689952cf27, type: 3}
  m_Name: GameSettings
  m_EditorClassIdentifier: 
  startHealthPlayer: 50
  difficulty: 0
  numberOfOpponents: 0
  playerColor:
    serializedVersion: 2
    rgba: 4294901760
  enemyColor1:
    serializedVersion: 2
    rgba: 4278190335
  enemyColor2:
    serializedVersion: 2
    rgba: 4278255360
  enemyColor3:
    serializedVersion: 2
    rgba: 4278255615
